{
    // ===== Visual Studio Code Settings =====
    "window.restoreWindows": "none",
    "window.titleBarStyle": "custom",
    "workbench.settings.editor": "json",
    "workbench.settings.openDefaultSettings": true,
    "debug.toolBarLocation": "docked",
    "git.enableSmartCommit": true,
    "git.confirmSync": false,
    "scm.alwaysShowRepositories": true,
    "workbench.tips.enabled": false,
    "extensions.ignoreRecommendations": true,
    "extensions.autoUpdate": false,
    "update.mode": "none",
    "editor.cursorSmoothCaretAnimation": true,
    "terminal.integrated.shell.windows": "C:\\Program Files\\Git\\bin\\bash.exe",
    "diffEditor.ignoreTrimWhitespace": false,
    "workbench.editor.decorations.badges":false,
    "workbench.editor.decorations.colors": false,
    "editor.fontFamily": "'Cascadia Code'",
    "editor.fontLigatures": true,
    "security.workspace.trust.enabled" : false,
    "workbench.editor.untitled.hint": "hidden",

    // ===== Icons Settings =====
    "workbench.iconTheme": "vscode-icons",
    "workbench.productIconTheme": "fluent-icons",
    "vsicons.projectDetection.disableDetect": true,
    "vsicons.dontShowNewVersionMessage": true,

    // ===== Git Graph Plugin ====
    "git-graph.referenceLabels.combineLocalAndRemoteBranchLabels": false,
    "git-graph.repository.commits.initialLoad": 300,
    "git-graph.repository.commits.loadMore": 300,
    "git-graph.showStatusBarItem": false,

    // ===== RedHat Plugins ====
    "redhat.telemetry.enabled": false,

    // ===== Java Developmnet Settings =====
    "java.project.importOnFirstTimeStartup": "automatic",
    "java.referencesCodeLens.enabled": true,
    "java.implementationsCodeLens.enabled": true,
    "java.autobuild.enabled": false,
    "java.import.gradle.enabled": false,
    "java.import.maven.enabled": true,
    "maven.executable.preferMavenWrapper": false,
    "java.debug.settings.showStaticVariables": false,
    "java.configuration.checkProjectSettingsExclusions": false,
    "java.format.settings.profile": "formatter",
    "java.format.settings.url": "https://raw.githubusercontent.com/revelc/formatter-maven-plugin/master/src/main/resources/formatter-maven-plugin/eclipse/java.xml",
    "maven.terminal.useJavaHome": true,
    "java.semanticHighlighting.enabled": true,
    // - Linux -
    "java.home": "/usr/lib/jvm/java-11-eclipse-temurin",
    "java.configuration.runtimes": [
        {
            "name": "JavaSE-1.8",
            "path": "/usr/lib/jvm/java-8-eclipse-temurin",
            "sources": "/usr/lib/jvm/java-8-eclipse-temurin/src.zip",
            "javadoc": "https://docs.oracle.com/javase/8/docs/api"
        },
        {
            "default": true,
            "name": "JavaSE-11",
            "path": "/usr/lib/jvm/java-11-eclipse-temurin",
            "sources": "/usr/lib/jvm/java-11-eclipse-temurin/lib/src.zip",
            "javadoc": "https://docs.oracle.com/en/java/javase/11/docs/api"
        },
        {
            "name": "JavaSE-16",
            "path": "/usr/lib/jvm/java-16-eclipse-temurin",
            "sources": "/usr/lib/jvm/java-16-eclipse-temurin/lib/src.zip",
            "javadoc": "https://docs.oracle.com/en/java/javase/16/docs/api"
        }
    ],
    // - Windows -
    //"java.home": "C:\\java\\jdk-11.0.12+7",
    //"java.configuration.runtimes": [
    //    {
    //      "name": "JavaSE-1.8",
    //      "path": "C:\\java\\jdk8u302-b08",
    //      "sources": "C:\\java\\jdk8u302-b08\\src.zip",
    //      "javadoc": "https://docs.oracle.com/javase/8/docs/api"
    //    },
    //    {
    //      "default": true,
    //      "name": "JavaSE-11",
    //      "path": "C:\\java\\jdk-11.0.12+7",
    //      "sources": "C:\\java\\jdk-11.0.12+7\\lib\\src.zip",
    //      "javadoc": "https://docs.oracle.com/en/java/javase/11/docs/api"
    //    },
    //    {
    //      "name": "JavaSE-16",
    //      "path": "C:\\java\\jdk-16.0.2+7",
    //      "sources": "C:\\java\\jdk-16.0.2+7\\lib\\src.zip",
    //      "javadoc": "https://docs.oracle.com/en/java/javase/16/docs/api"
    //    }
    //  ],

    // ===== Go Developmnet Settings =====
    "go.useLanguageServer": true,
    "go.toolsManagement.autoUpdate": true,

    // ===== Markdown PDF Plugin ====
    "markdown-pdf.displayHeaderFooter": false,
    "markdown-pdf.format": "A4",

    // ===== Proxy Settings ====
    //"http.proxy": "username:password@example.com:8080",
    //"java.jdt.ls.vmargs": "-Dhttp.proxyHost=example.com -Dhttp.proxyPort=8080 -Dhttp.proxyUser=username -Dhttp.proxyPassword=password -Dhttps.proxyHost=example.com -Dhttps.proxyPort=8080 -Dhttps.proxyUser=username -Dhttps.proxyPassword=password",

    // ===== File Settings ====
    "files.associations": {
        "Dockerfile.*": "dockerfile",
        "dockerfile.*": "dockerfile"
    }

    // ===== Visual Studio Code Extensions =====
    // - vscode-icons - vscode-icons-team.vscode-icons
    // - Fluent Icons - miguelsolorio.fluent-icons
    // - XML Tools - dotjoshjohnson.xml
    // - YAML - redhat.vscode-yaml
    // - Better TOML - bungcip.better-toml
    // - Git Graph - mhutchie.git-graph
    // - Git Blame - waderyan.gitblame
    // --- Java ---
    // - Language Support for Java(TM) by Red Hat - redhat.java
    // - Debugger for Java - vscjava.vscode-java-debug
    // - Maven for Java - vscjava.vscode-maven
    // - Java Test Runner - vscjava.vscode-java-test
    // - Project Manager for Java - vscjava.vscode-java-dependency
    // - Dependency Analytics - redhat.fabric8-analytics
    // - SonarLint - sonarsource.sonarlint-vscode
    // --- Go ---
    // - Go - golang.go
    // --- Markdown ---
    // - Markdown PDF - yzane.markdown-pdf
    // - Marp for VS Code - marp-team.marp-vscode

}